.include "m16def.inc"
.def temp = r16
.def loop1 = r17 
.def loop2 = r18
.def loop3 = r19
.cseg
.org 0
ldi YH, high(RAMEND)
ldi YL, low(RAMEND)
out SPH, YH
out SPL, YL
ldi temp, 0
out DDRD, temp
ldi temp, 0b00000001
out PORTD, temp

main: 
  in temp, PIND
  sbrc temp, 0
  rjmp m1

  ldi temp, 0b00000001
  out DDRC, temp
  sbi PORTC, 0
  rcall delay
  cbi PORTC, 0
  rcall delay

  ldi temp, 0b00000010
  out DDRC, temp
  sbi PORTC, 1
  rcall delay
  cbi PORTC, 1
  rcall delay

  ldi temp, 0b00000100
  out DDRC, temp
  sbi PORTC, 2
  rcall delay
  cbi PORTC, 2
  rcall delay

  ldi temp, 0b00001000
  out DDRC, temp
  sbi PORTC, 3
  rcall delay
  cbi PORTC, 3
  rcall delay

  ldi temp, 0b00010000
  out DDRC, temp
  sbi PORTC, 4
  rcall delay
  cbi PORTC, 4
  rcall delay

  ldi temp, 0b00100000
  out DDRC, temp
  sbi PORTC, 5
  rcall delay
  cbi PORTC, 5
  rcall delay

  ldi temp, 0b01000000
  out DDRC, temp
  sbi PORTC, 6
  rcall delay
  cbi PORTC, 6
  rcall delay

  ldi temp, 0b10000000
  out DDRC, temp
  sbi PORTC, 7
  rcall delay
  cbi PORTC, 7
  rcall delay
  rjmp main

m1:
  ldi temp, 0b00000000
  out DDRC, temp
  out PORTC, temp
  rjmp main

delay:
  push loop1
  push loop2
  push loop3

  ldi loop3, 5
z1:
  dec loop3
  breq z4
  ldi loop2, 100
z2:
  dec loop2
  breq z1
  ldi loop1, 100
z3:
  dec loop1
  brne z3
  rjmp z2
z4:
  pop loop3
  pop loop2
  pop loop1
  ret
